<?xml version="1.0" encoding="utf-8"?>
<!-- Generator: Adobe Illustrator 21.0.0, SVG Export Plug-In . SVG Version: 6.00 Build 0)  -->
<svg version="1.1" id="Layer_1" xmlns="http://www.w3.org/2000/svg" xmlns:xlink="http://www.w3.org/1999/xlink" x="0px" y="0px"
	 viewBox="0 0 7.8 7.8" style="enable-background:new 0 0 7.8 7.8;" xml:space="preserve">
<style type="text/css">
	.st0{fill:#FFFFFF;}
</style>
<g>
	<g>
		<g>
			<g>
				<polygon class="st0" points="2.9,0 0,0 0,2.9 1.1,1.8 3.4,4.1 3.4,7.8 4.4,7.8 4.4,3.7 1.8,1.1 				"/>
				<polygon class="st0" points="4.9,0 6,1.1 4.6,2.5 5.3,3.2 6.7,1.8 7.8,2.9 7.8,0 				"/>
			</g>
		</g>
	</g>
</g>
</svg>
