<?xml version="1.0" encoding="utf-8"?>
<!-- Generator: Adobe Illustrator 21.0.0, SVG Export Plug-In . SVG Version: 6.00 Build 0)  -->
<svg version="1.1" id="Layer_1" xmlns="http://www.w3.org/2000/svg" xmlns:xlink="http://www.w3.org/1999/xlink" x="0px" y="0px"
	 viewBox="0 0 13.1 13.1" style="enable-background:new 0 0 13.1 13.1;" xml:space="preserve">
<style type="text/css">
	.st0{fill:#FFFFFF;}
</style>
<g>
	<g>
		<path class="st0" d="M0.9,12.2c0-0.1-0.1-0.1-0.1-0.2c0-0.1,0-1.4,0.7-2c0.3-0.3,0.9-0.6,1.8-1.1c1-0.5,1.5-0.8,1.8-1l0.6-0.5
			L5.2,6.8C4.4,5.8,4,4.8,4,4c0-0.7,0-1.4,0.3-2c0.4-0.7,1.1-1.1,2.2-1.1c1.1,0,1.9,0.4,2.2,1.1c0.3,0.6,0.3,1.4,0.3,2
			c0,0.9-0.4,1.9-1.2,2.8L7.4,7.4L8,7.9C8.1,8,8.3,8.1,8.6,8.3V7.3h0c0,0-0.1,0-0.1-0.1C9.4,6.2,9.9,5,9.9,4c0-0.7,0-1.6-0.4-2.4
			C9.1,0.9,8.3,0,6.5,0c-1.8,0-2.6,0.9-3,1.6C3.2,2.4,3.2,3.2,3.2,4c0,1.1,0.5,2.3,1.4,3.3C4.3,7.5,3.5,7.9,3,8.2
			C2,8.7,1.3,9,0.9,9.4C0.1,10.2,0,11.7,0,12c0,0.3,0.1,0.6,0.3,0.8c0.2,0.2,0.5,0.3,0.8,0.3h7.5v-0.8H1.1C1,12.2,0.9,12.2,0.9,12.2
			z M11.8,9h-0.4V8.6c0-0.7-0.5-1.2-1.2-1.2S9,7.9,9,8.6V9H8.6c-0.7,0-1.2,0.5-1.2,1.2c0,0.7,0.5,1.2,1.2,1.2H9v0.4
			c0,0.7,0.5,1.2,1.2,1.2s1.2-0.5,1.2-1.2v-0.4h0.4c0.7,0,1.2-0.5,1.2-1.2C13.1,9.5,12.5,9,11.8,9z M11.8,10.6h-1.2v1.2
			c0,0.2-0.2,0.4-0.4,0.4c-0.2,0-0.4-0.2-0.4-0.4v-1.2H8.6c-0.2,0-0.4-0.2-0.4-0.4c0-0.2,0.2-0.4,0.4-0.4h1.2V8.6
			c0-0.2,0.2-0.4,0.4-0.4c0.2,0,0.4,0.2,0.4,0.4v1.2h1.2c0.2,0,0.4,0.2,0.4,0.4C12.2,10.4,12.1,10.6,11.8,10.6z"/>
	</g>
</g>
</svg>
